…
  * "team-offense"
  * "team-defense"
  * "special-teams"
  * "qb"
  * "wr"
  * "rb"
  * "te"
  * "basic-offensive-line"
  * "basic-defensive-line"

**Example:**
```{r}
foutsiders_data("team-offense", 2020, "username", "password")

# A tibble: 32 × 10
   Team  `Total DVOA` `Weighted DVOA` `Pass DVOA` `Rush DVOA`
   <chr>        <dbl>           <dbl>       <dbl>       <dbl>
 1 GB           0.291           0.316       0.52        0.029
 2 KC           0.239           0.234       0.49       -0.057
 3 TB           0.198           0.246       0.371      -0.02 
 4 TEN          0.184           0.191       0.395       0.061
 5 BUF          0.156           0.178       0.433      -0.151
 6 SEA          0.137           0.095       0.304      -0.014
 7 NO           0.107           0.094       0.166       0.095
 8 MIN          0.063           0.06        0.188       0.007
 9 CLE          0.054           0.081       0.209      -0.008
10 LAR          0.044          -0.048       0.124       0.035
# … with 22 more rows, and 5 more variables:
#   Unadj. Total VOA <dbl>, Unadj. Pass VOA <dbl>,
#   Unadj. Rush VOA <dbl>, Variance <dbl>, Schedule <dbl>
```
…
